(wp22,wp21)
(wp23,wp21)
(wp23,wp22)
(wp24,wp11)
(wp24,wp22)
(wp24,wp23)
(wp25,wp22)
(wp25,wp23)
(wp25,wp24)
(wp26,wp11)
(wp26,wp23)
(wp26,wp24)
(wp26,wp25)
(wp27,wp25)
(wp27,wp26)
(wp28,wp27)
(wp28,wp5)
(wp29,wp27)
(wp29,wp28)
(wp29,wp5)
(wp24,wp17)
(wp22,wp17)
(wp30,wp28)
(wp30,wp29)
(wp31,wp30)
(wp34,wp33)
(wp36,wp15)
(wp36,wp18)
(wp36,wp35)
(wp37,wp15)
(wp37,wp18)
(wp37,wp35)
(wp37,wp36)
(wp38,wp15)
(wp38,wp18)
(wp38,wp35)
(wp38,wp36)
(wp38,wp37)
(wp39,wp15)
(wp39,wp18)
(wp39,wp36)
(wp39,wp37)
(wp39,wp38)
(wp40,wp12)
(wp40,wp37)
(wp40,wp38)
(wp40,wp39)
(wp40,wp9)
(wp41,wp12)
(wp41,wp38)
(wp41,wp39)
(wp41,wp40)
(wp41,wp9)
(wp42,wp12)
(wp42,wp39)
(wp42,wp40)
(wp42,wp41)
(wp42,wp9)
(wp43,wp12)
(wp43,wp40)
(wp43,wp41)
(wp43,wp42)
(wp43,wp9)
(wp44,wp12)
(wp44,wp40)
(wp44,wp41)
(wp44,wp42)
(wp44,wp43)
(wp44,wp6)
(wp45,wp3)
(wp45,wp42)
(wp45,wp43)
(wp45,wp44)
(wp45,wp6)
(wp46,wp3)
(wp46,wp44)
(wp46,wp45)
(wp46,wp6)
(wp47,wp45)
(wp47,wp46)
(wp47,wp6)
(wp48,wp46)
(wp48,wp47)
(wp49,wp16)
(wp50,wp13)
(wp50,wp16)
(wp50,wp49)
(wp51,wp13)
(wp51,wp16)
(wp51,wp49)
(wp51,wp50)
(wp52,wp16)
(wp52,wp50)
(wp52,wp51)
(wp53,wp10)
(wp53,wp16)
(wp53,wp51)
(wp53,wp52)
(wp54,wp10)
(wp54,wp52)
(wp54,wp53)
(wp54,wp7)
(wp55,wp10)
(wp55,wp53)
(wp55,wp54)
(wp55,wp7)
(wp56,wp54)
(wp56,wp55)
(wp56,wp7)
(wp58,wp1)
(wp58,wp4)
(wp58,wp56)
(wp59,wp1)
(wp59,wp4)
(wp59,wp58)
(wp60,wp4)
(wp60,wp58)
(wp60,wp59)
(wp61,wp59)
(wp61,wp60)
(wp64,wp14)
(wp64,wp20)
(wp65,wp14)
(wp65,wp20)
(wp65,wp64)
(wp66,wp14)
(wp66,wp64)
(wp66,wp65)
(wp67,wp14)
(wp67,wp64)
(wp67,wp65)
(wp67,wp66)
(wp67,wp8)
(wp68,wp66)
(wp68,wp67)
(wp68,wp8)
(wp69,wp67)
(wp69,wp68)
(wp69,wp8)
(wp70,wp68)
(wp70,wp69)
(wp70,wp8)
(wp71,wp2)
(wp71,wp68)
(wp71,wp69)
(wp71,wp70)
(wp71,wp8)
(wp72,wp2)
(wp72,wp69)
(wp72,wp70)
(wp72,wp71)
(wp73,wp2)
(wp73,wp70)
(wp73,wp71)
(wp73,wp72)
(wp74,wp2)
(wp74,wp71)
(wp74,wp72)
(wp74,wp73)
(wp75,wp72)
(wp75,wp73)
(wp75,wp74)
(wp76,wp30)
(wp76,wp31)
(wp77,wp30)
(wp77,wp31)
(wp77,wp76)
(wp78,wp47)
(wp78,wp48)
(wp78,wp76)
(wp78,wp77)
(wp79,wp46)
(wp79,wp47)
(wp79,wp48)
(wp79,wp77)
(wp79,wp78)
(wp80,wp0)
(wp80,wp46)
(wp80,wp47)
(wp80,wp48)
(wp80,wp79)
(wp81,wp0)
(wp81,wp46)
(wp81,wp47)
(wp81,wp48)
(wp81,wp80)
(wp82,wp0)
(wp82,wp61)
(wp82,wp81)
(wp83,wp0)
(wp83,wp59)
(wp83,wp60)
(wp83,wp61)
(wp83,wp81)
(wp83,wp82)
(wp84,wp61)
(wp85,wp61)
(wp85,wp84)
(wp86,wp74)
(wp86,wp75)
(wp86,wp84)
(wp86,wp85)
(wp87,wp74)
(wp87,wp75)
(wp87,wp86)
(wp88,wp74)
(wp88,wp75)
(wp88,wp86)
(wp88,wp87)
(wp90,wp21)
(wp91,wp90)
(wp92,wp35)
(wp92,wp90)
(wp92,wp91)
(wp93,wp35)
(wp93,wp36)
(wp93,wp92)
(wp94,wp19)
(wp94,wp92)
(wp94,wp93)
(wp95,wp19)
(wp95,wp93)
(wp95,wp94)
(wp96,wp19)
(wp96,wp49)
(wp96,wp95)
(wp97,wp19)
(wp97,wp49)
(wp97,wp95)
(wp97,wp96)
(wp98,wp49)
(wp98,wp50)
(wp98,wp96)
(wp98,wp97)
(wp99,wp49)
(wp99,wp98)
(wp100,wp20)
(wp100,wp98)
(wp100,wp99)
