 Plan from  region s1 to region c3 : read right to left 
-----------------------------------------------
wp17 <- wp24 <- wp28 <- wp27 <- wp30 <- wp34 <- wp33 <- wp76 <- wp78 <- wp79 <- wp47 <- wp46 <- wp48 <- wp0
--------------------------------------------------------------------------------------
wp18 <- wp38 <- wp41 <- wp12 <- wp43 <- wp46 <- wp48 <- wp0
--------------------------------------------------------------------------------------
 Plan from  region c3 to region c2 : read right to left 
-----------------------------------------------
wp15 <- wp36 <- wp18
--------------------------------------------------------------------------------------
wp16 <- wp49 <- wp19 <- wp94 <- wp93 <- wp92 <- wp37 <- wp36 <- wp18
--------------------------------------------------------------------------------------
 Plan from  region c2 to region c1 : read right to left 
-----------------------------------------------
wp13 <- wp50 <- wp16 <- wp49 <- wp19 <- wp94 <- wp93 <- wp92 <- wp37 <- wp36 <- wp15
--------------------------------------------------------------------------------------
wp14 <- wp65 <- wp20 <- wp100 <- wp99 <- wp98 <- wp97 <- wp96 <- wp95 <- wp49 <- wp19 <- wp94 <- wp93 <- wp92 <- wp37 <- wp36 <- wp15
--------------------------------------------------------------------------------------
 Plan from  region c1 to region b3 : read right to left 
-----------------------------------------------
wp11 <- wp27 <- wp26 <- wp25 <- wp24 <- wp23 <- wp22 <- wp21 <- wp90 <- wp89 <- wp91 <- wp92 <- wp36 <- wp35 <- wp93 <- wp19 <- wp49 <- wp16 <- wp52 <- wp51 <- wp50 <- wp13
--------------------------------------------------------------------------------------
wp12 <- wp41 <- wp40 <- wp39 <- wp38 <- wp37 <- wp36 <- wp35 <- wp93 <- wp19 <- wp49 <- wp16 <- wp52 <- wp51 <- wp50 <- wp13
--------------------------------------------------------------------------------------
 Plan from  region b3 to region b2 : read right to left 
-----------------------------------------------
wp9 <- wp42 <- wp41 <- wp40 <- wp39 <- wp38 <- wp37 <- wp36 <- wp92 <- wp35 <- wp91 <- wp90 <- wp89 <- wp23 <- wp22 <- wp21 <- wp24 <- wp28 <- wp27 <- wp11
--------------------------------------------------------------------------------------
wp10 <- wp54 <- wp52 <- wp51 <- wp50 <- wp16 <- wp49 <- wp19 <- wp94 <- wp93 <- wp92 <- wp35 <- wp91 <- wp90 <- wp89 <- wp23 <- wp22 <- wp21 <- wp24 <- wp28 <- wp27 <- wp11
--------------------------------------------------------------------------------------
