 Plan from  region s1 to region c3 : read right to left 
-----------------------------------------------
wp17 <- wp22 <- wp25 <- wp11 <- wp27 <- wp30 <- wp34 <- wp77 <- wp79 <- wp78 <- wp47 <- wp46 <- wp45 <- wp48 <- wp0
--------------------------------------------------------------------------------------
wp18 <- wp38 <- wp41 <- wp12 <- wp43 <- wp45 <- wp48 <- wp0
--------------------------------------------------------------------------------------
 Plan from  region c3 to region c2 : read right to left 
-----------------------------------------------
wp15 <- wp37 <- wp36 <- wp18
--------------------------------------------------------------------------------------
wp16 <- wp50 <- wp13 <- wp49 <- wp19 <- wp94 <- wp93 <- wp92 <- wp35 <- wp38 <- wp37 <- wp36 <- wp18
--------------------------------------------------------------------------------------
 Plan from  region c2 to region c1 : read right to left 
-----------------------------------------------
wp13 <- wp49 <- wp19 <- wp94 <- wp93 <- wp92 <- wp91 <- wp35 <- wp38 <- wp37 <- wp15
--------------------------------------------------------------------------------------
wp14 <- wp64 <- wp20 <- wp100 <- wp99 <- wp98 <- wp97 <- wp96 <- wp95 <- wp19 <- wp94 <- wp93 <- wp92 <- wp91 <- wp35 <- wp38 <- wp37 <- wp15
--------------------------------------------------------------------------------------
 Plan from  region c1 to region b3 : read right to left 
-----------------------------------------------
wp11 <- wp25 <- wp24 <- wp23 <- wp22 <- wp21 <- wp90 <- wp91 <- wp93 <- wp92 <- wp35 <- wp94 <- wp19 <- wp49 <- wp13
--------------------------------------------------------------------------------------
wp12 <- wp40 <- wp39 <- wp38 <- wp37 <- wp36 <- wp93 <- wp92 <- wp35 <- wp94 <- wp19 <- wp49 <- wp13
--------------------------------------------------------------------------------------
 Plan from  region b3 to region b2 : read right to left 
-----------------------------------------------
wp9 <- wp41 <- wp40 <- wp39 <- wp38 <- wp37 <- wp36 <- wp93 <- wp92 <- wp35 <- wp91 <- wp90 <- wp89 <- wp21 <- wp23 <- wp22 <- wp25 <- wp11
--------------------------------------------------------------------------------------
wp10 <- wp56 <- wp59 <- wp61 <- wp0 <- wp48 <- wp47 <- wp78 <- wp77 <- wp76 <- wp34 <- wp33 <- wp32 <- wp31 <- wp30 <- wp29 <- wp28 <- wp27 <- wp26 <- wp25 <- wp11
--------------------------------------------------------------------------------------
