wp0[14.775,0.325,-1.57]
wp1[22.425,-4.975,0]
wp10[17.525,-11.275,3.14]
wp11[2.425,-11.275,0]
wp12[7.525,-11.275,3.14]
wp13[22.425,-17.575,0]
wp14[27.525,-17.575,3.14]
wp15[12.425,-17.575,0]
wp16[17.525,-17.575,3.14]
wp17[2.425,-17.575,0]
wp18[7.525,-17.575,3.14]
wp19[15.675,-22.875,-1.57]
wp2[27.525,-4.975,3.14]
wp20[28.825,-20.975,-1.57]
wp3[12.425,-4.975,0]
wp4[17.525,-4.975,3.14]
wp5[2.425,-4.975,0]
wp6[7.525,-4.975,3.14]
wp7[22.425,-11.275,0]
wp8[27.525,-11.275,3.14]
wp9[12.425,-11.275,0]
wp21[0.425,-19.675,-0.96191]
wp22[-0.675,-17.975,-0.265443]
wp23[0.625,-16.225,2.50665]
wp24[-0.475,-14.325,-1.00721]
wp25[0.375,-13.625,0.468973]
wp26[-0.275,-11.725,2.20415]
wp27[0.825,-9.125,0.50774]
wp28[0.725,-6.125,-2.49782]
wp29[1.225,-4.325,-2.55904]
wp30[0.575,-2.075,-1.93635]
wp31[-0.325,0.625,2.80452]
wp32[0.875,1.925,-2.75908]
wp33[0.525,3.125,2.03892]
wp34[1.225,5.875,2.35347]
wp35[9.875,-19.275,-0.0276412]
wp36[8.825,-18.075,1.52192]
wp37[8.975,-16.325,-1.06663]
wp38[10.725,-15.125,-0.915416]
wp39[9.825,-13.875,1.22472]
wp40[8.775,-11.725,0.887642]
wp41[10.325,-10.175,1.27015]
wp42[9.575,-9.325,0.16748]
wp43[9.025,-8.225,1.83359]
wp44[10.025,-7.125,0.837028]
wp45[10.675,-4.925,-2.79984]
wp46[10.275,-3.075,2.57665]
wp47[9.775,-1.175,-0.999728]
wp48[9.525,0.525,2.91233]
wp49[20.075,-20.075,-0.331072]
wp50[21.125,-18.725,2.50303]
wp51[20.575,-16.175,0.764565]
wp52[21.375,-15.125,-0.54344]
wp53[20.175,-13.575,-2.848]
wp54[18.575,-11.425,-2.50625]
wp55[18.525,-9.975,1.12559]
wp56[18.475,-8.225,0.735048]
wp57[22.025,-6.225,0.505782]
wp58[20.025,-5.025,-2.96688]
wp59[20.025,-2.775,-2.68445]
wp60[21.175,-1.675,1.22171]
wp61[20.475,0.525,-2.46333]
wp62[18.625,1.825,-2.16974]
wp63[32.375,-20.425,-1.5344]
wp64[30.675,-17.775,2.73279]
wp65[29.975,-16.825,-1.28127]
wp66[29.475,-15.275,2.78427]
wp67[30.425,-14.475,-2.33641]
wp68[31.825,-12.175,0.944282]
wp69[31.875,-10.575,-1.91329]
wp70[31.475,-9.525,2.58325]
wp71[30.175,-7.725,-1.52784]
wp72[32.075,-6.375,0.41953]
wp73[31.375,-5.325,1.07263]
wp74[31.425,-3.475,-2.25773]
wp75[31.775,-1.575,-2.53628]
wp76[1.375,0.825,-3.00441]
wp77[3.725,1.025,0.202173]
wp78[5.375,0.375,-3.01437]
wp79[7.425,0.425,0.509412]
wp80[11.075,0.125,-2.57779]
wp81[13.025,0.925,0.983337]
wp82[16.125,1.075,-1.08562]
wp83[17.525,0.675,-0.201759]
wp84[23.175,-0.0249996,1.34097]
wp85[24.525,-0.475,1.47815]
wp86[28.125,-0.125,-1.46127]
wp87[29.825,-0.425,-1.33404]
wp88[30.525,0.475,2.31696]
wp89[0.0250002,-22.675,1.28867]
wp90[3.275,-22.875,2.54255]
wp91[4.675,-21.575,0.767253]
wp92[7.275,-21.775,-2.43002]
wp93[9.725,-21.675,-1.17488]
wp94[12.125,-21.475,0.109796]
wp95[13.825,-22.275,1.0667]
wp96[17.475,-21.375,2.501]
wp97[17.975,-22.975,2.21541]
wp98[20.775,-22.925,1.43821]
wp99[23.175,-22.975,-0.388939]
wp100[24.625,-22.925,-1.65228]
