 Plan from  region s1 to region a1 : read right to left 
-----------------------------------------------
wp1 <- wp44 <- wp58 <- wp0
--------------------------------------------------------------------------------------
wp2 <- wp52 <- wp61 <- wp60 <- wp59 <- wp44 <- wp58 <- wp0
--------------------------------------------------------------------------------------
 Plan from  region s1 to region a2 : read right to left 
-----------------------------------------------
wp3 <- wp36 <- wp57 <- wp0
--------------------------------------------------------------------------------------
wp4 <- wp44 <- wp58 <- wp0
--------------------------------------------------------------------------------------
 Plan from  region s1 to region a3 : read right to left 
-----------------------------------------------
wp5 <- wp28 <- wp53 <- wp54 <- wp55 <- wp56 <- wp36 <- wp57 <- wp0
--------------------------------------------------------------------------------------
wp6 <- wp36 <- wp57 <- wp0
--------------------------------------------------------------------------------------
 Plan from  region s1 to region b1 : read right to left 
-----------------------------------------------
wp7 <- wp40 <- wp10 <- wp42 <- wp4 <- wp44 <- wp58 <- wp0
--------------------------------------------------------------------------------------
wp8 <- wp50 <- wp2 <- wp52 <- wp61 <- wp60 <- wp59 <- wp44 <- wp58 <- wp0
--------------------------------------------------------------------------------------
 Plan from  region s1 to region b2 : read right to left 
-----------------------------------------------
wp9 <- wp32 <- wp12 <- wp34 <- wp36 <- wp57 <- wp0
--------------------------------------------------------------------------------------
wp10 <- wp42 <- wp4 <- wp44 <- wp58 <- wp0
--------------------------------------------------------------------------------------
 Plan from  region s1 to region b3 : read right to left 
-----------------------------------------------
wp11 <- wp26 <- wp28 <- wp53 <- wp54 <- wp55 <- wp56 <- wp36 <- wp57 <- wp0
--------------------------------------------------------------------------------------
wp12 <- wp34 <- wp36 <- wp57 <- wp0
--------------------------------------------------------------------------------------
 Plan from  region s1 to region c1 : read right to left 
-----------------------------------------------
wp13 <- wp38 <- wp40 <- wp10 <- wp42 <- wp4 <- wp44 <- wp58 <- wp0
--------------------------------------------------------------------------------------
wp14 <- wp47 <- wp46 <- wp48 <- wp50 <- wp2 <- wp52 <- wp61 <- wp60 <- wp59 <- wp44 <- wp58 <- wp0
--------------------------------------------------------------------------------------
 Plan from  region c1 to region a1 : read right to left 
-----------------------------------------------
wp1 <- wp42 <- wp41 <- wp40 <- wp39 <- wp38 <- wp37 <- wp13
--------------------------------------------------------------------------------------
wp2 <- wp50 <- wp49 <- wp48 <- wp47 <- wp46 <- wp45 <- wp20 <- wp72 <- wp71 <- wp70 <- wp37 <- wp13
--------------------------------------------------------------------------------------
 Plan from  region c1 to region a2 : read right to left 
-----------------------------------------------
wp3 <- wp35 <- wp34 <- wp33 <- wp32 <- wp31 <- wp30 <- wp18 <- wp29 <- wp67 <- wp19 <- wp70 <- wp37 <- wp13
--------------------------------------------------------------------------------------
wp4 <- wp42 <- wp41 <- wp40 <- wp39 <- wp38 <- wp37 <- wp13
--------------------------------------------------------------------------------------
 Plan from  region c1 to region a3 : read right to left 
-----------------------------------------------
wp5 <- wp27 <- wp26 <- wp25 <- wp24 <- wp23 <- wp22 <- wp63 <- wp21 <- wp64 <- wp65 <- wp66 <- wp29 <- wp67 <- wp19 <- wp70 <- wp37 <- wp13
--------------------------------------------------------------------------------------
wp6 <- wp34 <- wp33 <- wp32 <- wp31 <- wp30 <- wp18 <- wp29 <- wp67 <- wp19 <- wp70 <- wp37 <- wp13
--------------------------------------------------------------------------------------
 Plan from  region c1 to region b1 : read right to left 
-----------------------------------------------
wp7 <- wp40 <- wp39 <- wp38 <- wp37 <- wp13
--------------------------------------------------------------------------------------
wp8 <- wp48 <- wp47 <- wp46 <- wp45 <- wp20 <- wp72 <- wp71 <- wp70 <- wp37 <- wp13
--------------------------------------------------------------------------------------
 Plan from  region c1 to region b2 : read right to left 
-----------------------------------------------
wp9 <- wp32 <- wp31 <- wp30 <- wp18 <- wp29 <- wp67 <- wp19 <- wp70 <- wp37 <- wp13
--------------------------------------------------------------------------------------
wp10 <- wp40 <- wp39 <- wp38 <- wp37 <- wp13
--------------------------------------------------------------------------------------
 Plan from  region c1 to region b3 : read right to left 
-----------------------------------------------
wp11 <- wp24 <- wp23 <- wp22 <- wp63 <- wp21 <- wp64 <- wp65 <- wp66 <- wp29 <- wp67 <- wp19 <- wp70 <- wp37 <- wp13
--------------------------------------------------------------------------------------
wp12 <- wp32 <- wp31 <- wp30 <- wp18 <- wp29 <- wp67 <- wp19 <- wp70 <- wp37 <- wp13
--------------------------------------------------------------------------------------
 Plan from  region c1 to region c1 : read right to left 
-----------------------------------------------
 Plan from  region c1 to region c2 : read right to left 
-----------------------------------------------
wp15 <- wp30 <- wp18 <- wp29 <- wp67 <- wp19 <- wp70 <- wp37 <- wp13
--------------------------------------------------------------------------------------
wp16 <- wp37 <- wp13
--------------------------------------------------------------------------------------
 Plan from  region c1 to region c3 : read right to left 
-----------------------------------------------
wp17 <- wp22 <- wp63 <- wp21 <- wp64 <- wp65 <- wp66 <- wp29 <- wp67 <- wp19 <- wp70 <- wp37 <- wp13
--------------------------------------------------------------------------------------
wp18 <- wp29 <- wp67 <- wp19 <- wp70 <- wp37 <- wp13
--------------------------------------------------------------------------------------
 Plan from  region c1 to region l1 : read right to left 
-----------------------------------------------
wp19 <- wp70 <- wp37 <- wp13
--------------------------------------------------------------------------------------
 Plan from  region c1 to region s1 : read right to left 
-----------------------------------------------
wp0 <- wp58 <- wp44 <- wp43 <- wp42 <- wp41 <- wp40 <- wp39 <- wp38 <- wp37 <- wp13
--------------------------------------------------------------------------------------
 Plan from  region c1 to region a1 : read right to left 
-----------------------------------------------
wp1 <- wp42 <- wp41 <- wp40 <- wp39 <- wp38 <- wp37 <- wp13
--------------------------------------------------------------------------------------
wp2 <- wp50 <- wp49 <- wp48 <- wp47 <- wp46 <- wp45 <- wp20 <- wp72 <- wp71 <- wp70 <- wp37 <- wp13
--------------------------------------------------------------------------------------
 Plan from  region c1 to region a2 : read right to left 
-----------------------------------------------
wp3 <- wp35 <- wp34 <- wp33 <- wp32 <- wp31 <- wp30 <- wp18 <- wp29 <- wp67 <- wp19 <- wp70 <- wp37 <- wp13
--------------------------------------------------------------------------------------
wp4 <- wp42 <- wp41 <- wp40 <- wp39 <- wp38 <- wp37 <- wp13
--------------------------------------------------------------------------------------
 Plan from  region c1 to region a3 : read right to left 
-----------------------------------------------
wp5 <- wp27 <- wp26 <- wp25 <- wp24 <- wp23 <- wp22 <- wp63 <- wp21 <- wp64 <- wp65 <- wp66 <- wp29 <- wp67 <- wp19 <- wp70 <- wp37 <- wp13
--------------------------------------------------------------------------------------
wp6 <- wp34 <- wp33 <- wp32 <- wp31 <- wp30 <- wp18 <- wp29 <- wp67 <- wp19 <- wp70 <- wp37 <- wp13
--------------------------------------------------------------------------------------
 Plan from  region c1 to region b1 : read right to left 
-----------------------------------------------
wp7 <- wp40 <- wp39 <- wp38 <- wp37 <- wp13
--------------------------------------------------------------------------------------
wp8 <- wp48 <- wp47 <- wp46 <- wp45 <- wp20 <- wp72 <- wp71 <- wp70 <- wp37 <- wp13
--------------------------------------------------------------------------------------
 Plan from  region c1 to region b2 : read right to left 
-----------------------------------------------
wp9 <- wp32 <- wp31 <- wp30 <- wp18 <- wp29 <- wp67 <- wp19 <- wp70 <- wp37 <- wp13
--------------------------------------------------------------------------------------
wp10 <- wp40 <- wp39 <- wp38 <- wp37 <- wp13
--------------------------------------------------------------------------------------
 Plan from  region c1 to region b3 : read right to left 
-----------------------------------------------
wp11 <- wp24 <- wp23 <- wp22 <- wp63 <- wp21 <- wp64 <- wp65 <- wp66 <- wp29 <- wp67 <- wp19 <- wp70 <- wp37 <- wp13
--------------------------------------------------------------------------------------
wp12 <- wp32 <- wp31 <- wp30 <- wp18 <- wp29 <- wp67 <- wp19 <- wp70 <- wp37 <- wp13
--------------------------------------------------------------------------------------
 Plan from  region c1 to region c1 : read right to left 
-----------------------------------------------
 Plan from  region c1 to region c2 : read right to left 
-----------------------------------------------
wp15 <- wp30 <- wp18 <- wp29 <- wp67 <- wp19 <- wp70 <- wp37 <- wp13
--------------------------------------------------------------------------------------
wp16 <- wp37 <- wp13
--------------------------------------------------------------------------------------
 Plan from  region c1 to region c3 : read right to left 
-----------------------------------------------
wp17 <- wp22 <- wp63 <- wp21 <- wp64 <- wp65 <- wp66 <- wp29 <- wp67 <- wp19 <- wp70 <- wp37 <- wp13
--------------------------------------------------------------------------------------
wp18 <- wp29 <- wp67 <- wp19 <- wp70 <- wp37 <- wp13
--------------------------------------------------------------------------------------
 Plan from  region c1 to region l1 : read right to left 
-----------------------------------------------
wp19 <- wp70 <- wp37 <- wp13
--------------------------------------------------------------------------------------
 Plan from  region c1 to region s1 : read right to left 
-----------------------------------------------
wp0 <- wp58 <- wp44 <- wp43 <- wp42 <- wp41 <- wp40 <- wp39 <- wp38 <- wp37 <- wp13
--------------------------------------------------------------------------------------
 Plan from  region c1 to region a1 : read right to left 
-----------------------------------------------
wp1 <- wp42 <- wp41 <- wp40 <- wp39 <- wp38 <- wp37 <- wp13
--------------------------------------------------------------------------------------
wp2 <- wp50 <- wp49 <- wp48 <- wp47 <- wp46 <- wp45 <- wp20 <- wp72 <- wp71 <- wp70 <- wp37 <- wp13
--------------------------------------------------------------------------------------
 Plan from  region c1 to region a2 : read right to left 
-----------------------------------------------
wp3 <- wp35 <- wp34 <- wp33 <- wp32 <- wp31 <- wp30 <- wp18 <- wp29 <- wp67 <- wp19 <- wp70 <- wp37 <- wp13
--------------------------------------------------------------------------------------
wp4 <- wp42 <- wp41 <- wp40 <- wp39 <- wp38 <- wp37 <- wp13
--------------------------------------------------------------------------------------
 Plan from  region c1 to region a3 : read right to left 
-----------------------------------------------
wp5 <- wp27 <- wp26 <- wp25 <- wp24 <- wp23 <- wp22 <- wp63 <- wp21 <- wp64 <- wp65 <- wp66 <- wp29 <- wp67 <- wp19 <- wp70 <- wp37 <- wp13
--------------------------------------------------------------------------------------
wp6 <- wp34 <- wp33 <- wp32 <- wp31 <- wp30 <- wp18 <- wp29 <- wp67 <- wp19 <- wp70 <- wp37 <- wp13
--------------------------------------------------------------------------------------
 Plan from  region c1 to region b1 : read right to left 
-----------------------------------------------
wp7 <- wp40 <- wp39 <- wp38 <- wp37 <- wp13
--------------------------------------------------------------------------------------
wp8 <- wp48 <- wp47 <- wp46 <- wp45 <- wp20 <- wp72 <- wp71 <- wp70 <- wp37 <- wp13
--------------------------------------------------------------------------------------
 Plan from  region c1 to region b2 : read right to left 
-----------------------------------------------
wp9 <- wp32 <- wp31 <- wp30 <- wp18 <- wp29 <- wp67 <- wp19 <- wp70 <- wp37 <- wp13
--------------------------------------------------------------------------------------
wp10 <- wp40 <- wp39 <- wp38 <- wp37 <- wp13
--------------------------------------------------------------------------------------
 Plan from  region c1 to region b3 : read right to left 
-----------------------------------------------
wp11 <- wp24 <- wp23 <- wp22 <- wp63 <- wp21 <- wp64 <- wp65 <- wp66 <- wp29 <- wp67 <- wp19 <- wp70 <- wp37 <- wp13
--------------------------------------------------------------------------------------
wp12 <- wp32 <- wp31 <- wp30 <- wp18 <- wp29 <- wp67 <- wp19 <- wp70 <- wp37 <- wp13
--------------------------------------------------------------------------------------
 Plan from  region c1 to region c1 : read right to left 
-----------------------------------------------
 Plan from  region c1 to region c2 : read right to left 
-----------------------------------------------
wp15 <- wp30 <- wp18 <- wp29 <- wp67 <- wp19 <- wp70 <- wp37 <- wp13
--------------------------------------------------------------------------------------
wp16 <- wp37 <- wp13
--------------------------------------------------------------------------------------
 Plan from  region c1 to region c3 : read right to left 
-----------------------------------------------
wp17 <- wp22 <- wp63 <- wp21 <- wp64 <- wp65 <- wp66 <- wp29 <- wp67 <- wp19 <- wp70 <- wp37 <- wp13
--------------------------------------------------------------------------------------
wp18 <- wp29 <- wp67 <- wp19 <- wp70 <- wp37 <- wp13
--------------------------------------------------------------------------------------
 Plan from  region c1 to region l1 : read right to left 
-----------------------------------------------
wp19 <- wp70 <- wp37 <- wp13
--------------------------------------------------------------------------------------
 Plan from  region c1 to region s1 : read right to left 
-----------------------------------------------
wp0 <- wp58 <- wp44 <- wp43 <- wp42 <- wp41 <- wp40 <- wp39 <- wp38 <- wp37 <- wp13
--------------------------------------------------------------------------------------
 Plan from  region c1 to region a1 : read right to left 
-----------------------------------------------
wp1 <- wp42 <- wp41 <- wp40 <- wp39 <- wp38 <- wp37 <- wp13
--------------------------------------------------------------------------------------
wp2 <- wp50 <- wp49 <- wp48 <- wp47 <- wp46 <- wp45 <- wp20 <- wp72 <- wp71 <- wp70 <- wp37 <- wp13
--------------------------------------------------------------------------------------
 Plan from  region c1 to region a2 : read right to left 
-----------------------------------------------
wp3 <- wp35 <- wp34 <- wp33 <- wp32 <- wp31 <- wp30 <- wp18 <- wp29 <- wp67 <- wp19 <- wp70 <- wp37 <- wp13
--------------------------------------------------------------------------------------
wp4 <- wp42 <- wp41 <- wp40 <- wp39 <- wp38 <- wp37 <- wp13
--------------------------------------------------------------------------------------
 Plan from  region c1 to region a3 : read right to left 
-----------------------------------------------
wp5 <- wp27 <- wp26 <- wp25 <- wp24 <- wp23 <- wp22 <- wp63 <- wp21 <- wp64 <- wp65 <- wp66 <- wp29 <- wp67 <- wp19 <- wp70 <- wp37 <- wp13
--------------------------------------------------------------------------------------
wp6 <- wp34 <- wp33 <- wp32 <- wp31 <- wp30 <- wp18 <- wp29 <- wp67 <- wp19 <- wp70 <- wp37 <- wp13
--------------------------------------------------------------------------------------
 Plan from  region c1 to region b1 : read right to left 
-----------------------------------------------
wp7 <- wp40 <- wp39 <- wp38 <- wp37 <- wp13
--------------------------------------------------------------------------------------
wp8 <- wp48 <- wp47 <- wp46 <- wp45 <- wp20 <- wp72 <- wp71 <- wp70 <- wp37 <- wp13
--------------------------------------------------------------------------------------
 Plan from  region c1 to region b2 : read right to left 
-----------------------------------------------
wp9 <- wp32 <- wp31 <- wp30 <- wp18 <- wp29 <- wp67 <- wp19 <- wp70 <- wp37 <- wp13
--------------------------------------------------------------------------------------
wp10 <- wp40 <- wp39 <- wp38 <- wp37 <- wp13
--------------------------------------------------------------------------------------
 Plan from  region c1 to region b3 : read right to left 
-----------------------------------------------
wp11 <- wp24 <- wp23 <- wp22 <- wp63 <- wp21 <- wp64 <- wp65 <- wp66 <- wp29 <- wp67 <- wp19 <- wp70 <- wp37 <- wp13
--------------------------------------------------------------------------------------
wp12 <- wp32 <- wp31 <- wp30 <- wp18 <- wp29 <- wp67 <- wp19 <- wp70 <- wp37 <- wp13
--------------------------------------------------------------------------------------
 Plan from  region c1 to region c1 : read right to left 
-----------------------------------------------
 Plan from  region c1 to region c2 : read right to left 
-----------------------------------------------
wp15 <- wp30 <- wp18 <- wp29 <- wp67 <- wp19 <- wp70 <- wp37 <- wp13
--------------------------------------------------------------------------------------
wp16 <- wp37 <- wp13
--------------------------------------------------------------------------------------
 Plan from  region c1 to region c3 : read right to left 
-----------------------------------------------
wp17 <- wp22 <- wp63 <- wp21 <- wp64 <- wp65 <- wp66 <- wp29 <- wp67 <- wp19 <- wp70 <- wp37 <- wp13
--------------------------------------------------------------------------------------
wp18 <- wp29 <- wp67 <- wp19 <- wp70 <- wp37 <- wp13
--------------------------------------------------------------------------------------
 Plan from  region c1 to region l1 : read right to left 
-----------------------------------------------
wp19 <- wp70 <- wp37 <- wp13
--------------------------------------------------------------------------------------
