(wp22,wp21)
(wp23,wp21)
(wp23,wp22)
(wp24,wp11)
(wp24,wp23)
(wp25,wp11)
(wp25,wp24)
(wp26,wp11)
(wp26,wp24)
(wp26,wp25)
(wp27,wp24)
(wp27,wp25)
(wp27,wp26)
(wp27,wp5)
(wp28,wp27)
(wp28,wp5)
(wp29,wp27)
(wp29,wp28)
(wp29,wp5)
(wp13,wp39)
(wp31,wp15)
(wp31,wp18)
(wp31,wp30)
(wp32,wp15)
(wp32,wp18)
(wp17,wp22)
(wp17,wp23)
(wp32,wp30)
(wp32,wp31)
(wp33,wp31)
(wp33,wp32)
(wp34,wp12)
(wp34,wp32)
(wp34,wp33)
(wp34,wp9)
(wp35,wp12)
(wp35,wp33)
(wp35,wp34)
(wp35,wp9)
(wp36,wp12)
(wp36,wp34)
(wp36,wp35)
(wp36,wp6)
(wp37,wp3)
(wp37,wp36)
(wp37,wp6)
(wp38,wp0)
(wp38,wp37)
(wp38,wp6)
(wp39,wp16)
(wp41,wp10)
(wp41,wp16)
(wp41,wp39)
(wp42,wp10)
(wp42,wp41)
(wp42,wp7)
(wp43,wp42)
(wp43,wp7)
(wp45,wp1)
(wp45,wp4)
(wp45,wp43)
(wp46,wp1)
(wp46,wp4)
(wp46,wp45)
(wp47,wp4)
(wp47,wp45)
(wp47,wp46)
(wp48,wp14)
(wp49,wp14)
(wp49,wp20)
(wp49,wp48)
(wp50,wp14)
(wp50,wp20)
(wp50,wp48)
(wp50,wp49)
(wp51,wp49)
(wp51,wp50)
(wp51,wp8)
(wp52,wp50)
(wp52,wp51)
(wp52,wp8)
(wp53,wp51)
(wp53,wp52)
(wp53,wp8)
(wp54,wp2)
(wp54,wp53)
(wp55,wp2)
(wp55,wp54)
(wp56,wp2)
(wp56,wp54)
(wp56,wp55)
(wp57,wp28)
(wp57,wp29)
(wp58,wp57)
(wp59,wp57)
(wp59,wp58)
(wp60,wp37)
(wp60,wp38)
(wp60,wp59)
(wp61,wp0)
(wp61,wp38)
(wp61,wp60)
(wp62,wp0)
(wp62,wp47)
(wp62,wp61)
(wp63,wp0)
(wp63,wp46)
(wp63,wp47)
(wp63,wp62)
(wp64,wp47)
(wp64,wp62)
(wp64,wp63)
(wp65,wp46)
(wp65,wp47)
(wp65,wp62)
(wp65,wp63)
(wp65,wp64)
(wp66,wp64)
(wp66,wp65)
(wp67,wp56)
(wp67,wp66)
(wp68,wp56)
(wp68,wp67)
(wp69,wp21)
(wp69,wp22)
(wp70,wp21)
(wp70,wp69)
(wp71,wp30)
(wp71,wp69)
(wp71,wp70)
(wp72,wp30)
(wp72,wp70)
(wp72,wp71)
(wp73,wp30)
(wp73,wp31)
(wp73,wp71)
(wp73,wp72)
(wp74,wp19)
(wp74,wp30)
(wp74,wp73)
(wp75,wp19)
(wp75,wp73)
(wp75,wp74)
(wp76,wp19)
(wp76,wp39)
(wp77,wp19)
(wp77,wp39)
(wp77,wp76)
(wp78,wp76)
(wp78,wp77)
(wp79,wp76)
(wp79,wp77)
(wp79,wp78)
(wp80,wp20)
(wp80,wp78)
(wp80,wp79)
