 Plan from  region s1 to region c3 : read right to left 
-----------------------------------------------
wp17 <- wp23 <- wp25 <- wp24 <- wp11 <- wp26 <- wp28 <- wp29 <- wp57 <- wp59 <- wp38 <- wp0
--------------------------------------------------------------------------------------
wp18 <- wp32 <- wp33 <- wp12 <- wp35 <- wp34 <- wp36 <- wp38 <- wp0
--------------------------------------------------------------------------------------
 Plan from  region c3 to region c2 : read right to left 
-----------------------------------------------
wp15 <- wp31 <- wp18
--------------------------------------------------------------------------------------
wp16 <- wp40 <- wp13 <- wp39 <- wp77 <- wp76 <- wp75 <- wp19 <- wp74 <- wp73 <- wp30 <- wp32 <- wp31 <- wp18
--------------------------------------------------------------------------------------
 Plan from  region c2 to region c1 : read right to left 
-----------------------------------------------
wp13 <- wp39 <- wp77 <- wp76 <- wp75 <- wp19 <- wp74 <- wp73 <- wp30 <- wp32 <- wp31 <- wp15
--------------------------------------------------------------------------------------
wp14 <- wp48 <- wp20 <- wp80 <- wp79 <- wp78 <- wp77 <- wp76 <- wp75 <- wp19 <- wp74 <- wp73 <- wp30 <- wp32 <- wp31 <- wp15
--------------------------------------------------------------------------------------
 Plan from  region c1 to region b3 : read right to left 
-----------------------------------------------
wp11 <- wp24 <- wp23 <- wp22 <- wp69 <- wp21 <- wp70 <- wp72 <- wp71 <- wp73 <- wp74 <- wp75 <- wp19 <- wp76 <- wp39 <- wp13
--------------------------------------------------------------------------------------
wp12 <- wp33 <- wp32 <- wp31 <- wp30 <- wp73 <- wp74 <- wp75 <- wp19 <- wp76 <- wp39 <- wp13
--------------------------------------------------------------------------------------
 Plan from  region b3 to region b2 : read right to left 
-----------------------------------------------
wp9 <- wp35 <- wp37 <- wp60 <- wp59 <- wp58 <- wp57 <- wp29 <- wp28 <- wp27 <- wp26 <- wp25 <- wp24 <- wp11
--------------------------------------------------------------------------------------
wp10 <- wp43 <- wp45 <- wp4 <- wp47 <- wp64 <- wp63 <- wp62 <- wp61 <- wp38 <- wp60 <- wp59 <- wp58 <- wp57 <- wp29 <- wp28 <- wp27 <- wp26 <- wp25 <- wp24 <- wp11
--------------------------------------------------------------------------------------
 Plan from  region b2 to region b1 : read right to left 
-----------------------------------------------
wp7 <- wp43 <- wp45 <- wp4 <- wp47 <- wp64 <- wp63 <- wp62 <- wp61 <- wp60 <- wp38 <- wp37 <- wp36 <- wp35 <- wp34 <- wp33 <- wp9
--------------------------------------------------------------------------------------
wp8 <- wp53 <- wp2 <- wp55 <- wp56 <- wp68 <- wp67 <- wp66 <- wp65 <- wp64 <- wp63 <- wp62 <- wp61 <- wp60 <- wp38 <- wp37 <- wp36 <- wp35 <- wp34 <- wp33 <- wp9
--------------------------------------------------------------------------------------
 Plan from  region b2 to region a3 : read right to left 
-----------------------------------------------
wp5 <- wp28 <- wp29 <- wp57 <- wp59 <- wp60 <- wp38 <- wp37 <- wp36 <- wp35 <- wp34 <- wp33 <- wp9
--------------------------------------------------------------------------------------
wp6 <- wp35 <- wp34 <- wp33 <- wp9
--------------------------------------------------------------------------------------
 Plan from  region b2 to region a1 : read right to left 
-----------------------------------------------
wp1 <- wp46 <- wp45 <- wp4 <- wp47 <- wp64 <- wp63 <- wp62 <- wp61 <- wp60 <- wp38 <- wp37 <- wp36 <- wp35 <- wp34 <- wp33 <- wp9
--------------------------------------------------------------------------------------
wp2 <- wp55 <- wp56 <- wp68 <- wp67 <- wp66 <- wp65 <- wp64 <- wp63 <- wp62 <- wp61 <- wp60 <- wp38 <- wp37 <- wp36 <- wp35 <- wp34 <- wp33 <- wp9
--------------------------------------------------------------------------------------
 Plan from  region b2 to region b1 : read right to left 
-----------------------------------------------
wp7 <- wp43 <- wp45 <- wp4 <- wp47 <- wp64 <- wp63 <- wp62 <- wp61 <- wp60 <- wp38 <- wp37 <- wp36 <- wp35 <- wp34 <- wp33 <- wp9
--------------------------------------------------------------------------------------
wp8 <- wp53 <- wp2 <- wp55 <- wp56 <- wp68 <- wp67 <- wp66 <- wp65 <- wp64 <- wp63 <- wp62 <- wp61 <- wp60 <- wp38 <- wp37 <- wp36 <- wp35 <- wp34 <- wp33 <- wp9
--------------------------------------------------------------------------------------
 Plan from  region b2 to region a3 : read right to left 
-----------------------------------------------
wp5 <- wp28 <- wp29 <- wp57 <- wp59 <- wp60 <- wp38 <- wp37 <- wp36 <- wp35 <- wp34 <- wp33 <- wp9
--------------------------------------------------------------------------------------
wp6 <- wp35 <- wp34 <- wp33 <- wp9
--------------------------------------------------------------------------------------
 Plan from  region b2 to region a1 : read right to left 
-----------------------------------------------
wp1 <- wp46 <- wp45 <- wp4 <- wp47 <- wp64 <- wp63 <- wp62 <- wp61 <- wp60 <- wp38 <- wp37 <- wp36 <- wp35 <- wp34 <- wp33 <- wp9
--------------------------------------------------------------------------------------
wp2 <- wp55 <- wp56 <- wp68 <- wp67 <- wp66 <- wp65 <- wp64 <- wp63 <- wp62 <- wp61 <- wp60 <- wp38 <- wp37 <- wp36 <- wp35 <- wp34 <- wp33 <- wp9
--------------------------------------------------------------------------------------
 Plan from  region b2 to region b1 : read right to left 
-----------------------------------------------
wp7 <- wp43 <- wp45 <- wp4 <- wp47 <- wp64 <- wp63 <- wp62 <- wp61 <- wp60 <- wp38 <- wp37 <- wp36 <- wp35 <- wp34 <- wp33 <- wp9
--------------------------------------------------------------------------------------
wp8 <- wp53 <- wp2 <- wp55 <- wp56 <- wp68 <- wp67 <- wp66 <- wp65 <- wp64 <- wp63 <- wp62 <- wp61 <- wp60 <- wp38 <- wp37 <- wp36 <- wp35 <- wp34 <- wp33 <- wp9
--------------------------------------------------------------------------------------
 Plan from  region b2 to region a3 : read right to left 
-----------------------------------------------
wp5 <- wp28 <- wp29 <- wp57 <- wp59 <- wp60 <- wp38 <- wp37 <- wp36 <- wp35 <- wp34 <- wp33 <- wp9
--------------------------------------------------------------------------------------
wp6 <- wp35 <- wp34 <- wp33 <- wp9
--------------------------------------------------------------------------------------
 Plan from  region b2 to region a1 : read right to left 
-----------------------------------------------
wp1 <- wp46 <- wp45 <- wp4 <- wp47 <- wp64 <- wp63 <- wp62 <- wp61 <- wp60 <- wp38 <- wp37 <- wp36 <- wp35 <- wp34 <- wp33 <- wp9
--------------------------------------------------------------------------------------
wp2 <- wp55 <- wp56 <- wp68 <- wp67 <- wp66 <- wp65 <- wp64 <- wp63 <- wp62 <- wp61 <- wp60 <- wp38 <- wp37 <- wp36 <- wp35 <- wp34 <- wp33 <- wp9
--------------------------------------------------------------------------------------
 Plan from  region b2 to region l1 : read right to left 
-----------------------------------------------
wp19 <- wp74 <- wp73 <- wp31 <- wp30 <- wp32 <- wp33 <- wp9
--------------------------------------------------------------------------------------
 Plan from  region b2 to region b1 : read right to left 
-----------------------------------------------
wp7 <- wp43 <- wp45 <- wp4 <- wp47 <- wp64 <- wp63 <- wp62 <- wp61 <- wp60 <- wp38 <- wp37 <- wp36 <- wp35 <- wp34 <- wp33 <- wp9
--------------------------------------------------------------------------------------
wp8 <- wp53 <- wp2 <- wp55 <- wp56 <- wp68 <- wp67 <- wp66 <- wp65 <- wp64 <- wp63 <- wp62 <- wp61 <- wp60 <- wp38 <- wp37 <- wp36 <- wp35 <- wp34 <- wp33 <- wp9
--------------------------------------------------------------------------------------
 Plan from  region b2 to region a3 : read right to left 
-----------------------------------------------
wp5 <- wp28 <- wp29 <- wp57 <- wp59 <- wp60 <- wp38 <- wp37 <- wp36 <- wp35 <- wp34 <- wp33 <- wp9
--------------------------------------------------------------------------------------
wp6 <- wp35 <- wp34 <- wp33 <- wp9
--------------------------------------------------------------------------------------
 Plan from  region b2 to region a1 : read right to left 
-----------------------------------------------
wp1 <- wp46 <- wp45 <- wp4 <- wp47 <- wp64 <- wp63 <- wp62 <- wp61 <- wp60 <- wp38 <- wp37 <- wp36 <- wp35 <- wp34 <- wp33 <- wp9
--------------------------------------------------------------------------------------
wp2 <- wp55 <- wp56 <- wp68 <- wp67 <- wp66 <- wp65 <- wp64 <- wp63 <- wp62 <- wp61 <- wp60 <- wp38 <- wp37 <- wp36 <- wp35 <- wp34 <- wp33 <- wp9
--------------------------------------------------------------------------------------
 Plan from  region b2 to region l1 : read right to left 
-----------------------------------------------
wp19 <- wp74 <- wp73 <- wp31 <- wp30 <- wp32 <- wp33 <- wp9
--------------------------------------------------------------------------------------
 Plan from  region b2 to region b1 : read right to left 
-----------------------------------------------
wp7 <- wp43 <- wp45 <- wp4 <- wp47 <- wp64 <- wp63 <- wp62 <- wp61 <- wp60 <- wp38 <- wp37 <- wp36 <- wp35 <- wp34 <- wp33 <- wp9
--------------------------------------------------------------------------------------
wp8 <- wp53 <- wp2 <- wp55 <- wp56 <- wp68 <- wp67 <- wp66 <- wp65 <- wp64 <- wp63 <- wp62 <- wp61 <- wp60 <- wp38 <- wp37 <- wp36 <- wp35 <- wp34 <- wp33 <- wp9
--------------------------------------------------------------------------------------
 Plan from  region b2 to region a3 : read right to left 
-----------------------------------------------
wp5 <- wp28 <- wp29 <- wp57 <- wp59 <- wp60 <- wp38 <- wp37 <- wp36 <- wp35 <- wp34 <- wp33 <- wp9
--------------------------------------------------------------------------------------
wp6 <- wp35 <- wp34 <- wp33 <- wp9
--------------------------------------------------------------------------------------
 Plan from  region b2 to region a1 : read right to left 
-----------------------------------------------
wp1 <- wp46 <- wp45 <- wp4 <- wp47 <- wp64 <- wp63 <- wp62 <- wp61 <- wp60 <- wp38 <- wp37 <- wp36 <- wp35 <- wp34 <- wp33 <- wp9
--------------------------------------------------------------------------------------
wp2 <- wp55 <- wp56 <- wp68 <- wp67 <- wp66 <- wp65 <- wp64 <- wp63 <- wp62 <- wp61 <- wp60 <- wp38 <- wp37 <- wp36 <- wp35 <- wp34 <- wp33 <- wp9
--------------------------------------------------------------------------------------
 Plan from  region b2 to region l1 : read right to left 
-----------------------------------------------
wp19 <- wp74 <- wp73 <- wp31 <- wp30 <- wp32 <- wp33 <- wp9
--------------------------------------------------------------------------------------
 Plan from  region b2 to region b1 : read right to left 
-----------------------------------------------
wp7 <- wp43 <- wp45 <- wp4 <- wp47 <- wp64 <- wp63 <- wp62 <- wp61 <- wp60 <- wp38 <- wp37 <- wp36 <- wp35 <- wp34 <- wp33 <- wp9
--------------------------------------------------------------------------------------
wp8 <- wp53 <- wp2 <- wp55 <- wp56 <- wp68 <- wp67 <- wp66 <- wp65 <- wp64 <- wp63 <- wp62 <- wp61 <- wp60 <- wp38 <- wp37 <- wp36 <- wp35 <- wp34 <- wp33 <- wp9
--------------------------------------------------------------------------------------
 Plan from  region b2 to region a3 : read right to left 
-----------------------------------------------
wp5 <- wp28 <- wp29 <- wp57 <- wp59 <- wp60 <- wp38 <- wp37 <- wp36 <- wp35 <- wp34 <- wp33 <- wp9
--------------------------------------------------------------------------------------
wp6 <- wp35 <- wp34 <- wp33 <- wp9
--------------------------------------------------------------------------------------
 Plan from  region b2 to region a1 : read right to left 
-----------------------------------------------
wp1 <- wp46 <- wp45 <- wp4 <- wp47 <- wp64 <- wp63 <- wp62 <- wp61 <- wp60 <- wp38 <- wp37 <- wp36 <- wp35 <- wp34 <- wp33 <- wp9
--------------------------------------------------------------------------------------
wp2 <- wp55 <- wp56 <- wp68 <- wp67 <- wp66 <- wp65 <- wp64 <- wp63 <- wp62 <- wp61 <- wp60 <- wp38 <- wp37 <- wp36 <- wp35 <- wp34 <- wp33 <- wp9
--------------------------------------------------------------------------------------
 Plan from  region b2 to region l1 : read right to left 
-----------------------------------------------
wp19 <- wp74 <- wp73 <- wp31 <- wp30 <- wp32 <- wp33 <- wp9
--------------------------------------------------------------------------------------
 Plan from  region b2 to region b1 : read right to left 
-----------------------------------------------
wp7 <- wp43 <- wp45 <- wp4 <- wp47 <- wp64 <- wp63 <- wp62 <- wp61 <- wp60 <- wp38 <- wp37 <- wp36 <- wp35 <- wp34 <- wp33 <- wp9
--------------------------------------------------------------------------------------
wp8 <- wp53 <- wp2 <- wp55 <- wp56 <- wp68 <- wp67 <- wp66 <- wp65 <- wp64 <- wp63 <- wp62 <- wp61 <- wp60 <- wp38 <- wp37 <- wp36 <- wp35 <- wp34 <- wp33 <- wp9
--------------------------------------------------------------------------------------
 Plan from  region b2 to region a3 : read right to left 
-----------------------------------------------
wp5 <- wp28 <- wp29 <- wp57 <- wp59 <- wp60 <- wp38 <- wp37 <- wp36 <- wp35 <- wp34 <- wp33 <- wp9
--------------------------------------------------------------------------------------
wp6 <- wp35 <- wp34 <- wp33 <- wp9
--------------------------------------------------------------------------------------
 Plan from  region b2 to region a1 : read right to left 
-----------------------------------------------
wp1 <- wp46 <- wp45 <- wp4 <- wp47 <- wp64 <- wp63 <- wp62 <- wp61 <- wp60 <- wp38 <- wp37 <- wp36 <- wp35 <- wp34 <- wp33 <- wp9
--------------------------------------------------------------------------------------
wp2 <- wp55 <- wp56 <- wp68 <- wp67 <- wp66 <- wp65 <- wp64 <- wp63 <- wp62 <- wp61 <- wp60 <- wp38 <- wp37 <- wp36 <- wp35 <- wp34 <- wp33 <- wp9
--------------------------------------------------------------------------------------
 Plan from  region b1 to region l1 : read right to left 
-----------------------------------------------
wp19 <- wp76 <- wp78 <- wp80 <- wp20 <- wp49 <- wp48 <- wp50 <- wp51 <- wp8
--------------------------------------------------------------------------------------
 Plan from  region b1 to region l1 : read right to left 
-----------------------------------------------
wp19 <- wp76 <- wp78 <- wp80 <- wp20 <- wp49 <- wp48 <- wp50 <- wp51 <- wp8
--------------------------------------------------------------------------------------
 Plan from  region b1 to region b2 : read right to left 
-----------------------------------------------
wp9 <- wp34 <- wp36 <- wp38 <- wp0 <- wp62 <- wp63 <- wp64 <- wp66 <- wp68 <- wp56 <- wp55 <- wp54 <- wp53 <- wp52 <- wp51 <- wp8
--------------------------------------------------------------------------------------
wp10 <- wp43 <- wp45 <- wp4 <- wp47 <- wp64 <- wp66 <- wp68 <- wp56 <- wp55 <- wp54 <- wp53 <- wp52 <- wp51 <- wp8
--------------------------------------------------------------------------------------
 Plan from  region b2 to region l1 : read right to left 
-----------------------------------------------
wp19 <- wp74 <- wp73 <- wp31 <- wp30 <- wp32 <- wp33 <- wp9
--------------------------------------------------------------------------------------
 Plan from  region b2 to region a3 : read right to left 
-----------------------------------------------
wp5 <- wp28 <- wp29 <- wp57 <- wp59 <- wp60 <- wp38 <- wp37 <- wp36 <- wp35 <- wp34 <- wp33 <- wp9
--------------------------------------------------------------------------------------
wp6 <- wp35 <- wp34 <- wp33 <- wp9
--------------------------------------------------------------------------------------
 Plan from  region b2 to region a1 : read right to left 
-----------------------------------------------
wp1 <- wp46 <- wp45 <- wp4 <- wp47 <- wp64 <- wp63 <- wp62 <- wp61 <- wp60 <- wp38 <- wp37 <- wp36 <- wp35 <- wp34 <- wp33 <- wp9
--------------------------------------------------------------------------------------
wp2 <- wp55 <- wp56 <- wp68 <- wp67 <- wp66 <- wp65 <- wp64 <- wp63 <- wp62 <- wp61 <- wp60 <- wp38 <- wp37 <- wp36 <- wp35 <- wp34 <- wp33 <- wp9
--------------------------------------------------------------------------------------
 Plan from  region b2 to region a3 : read right to left 
-----------------------------------------------
wp5 <- wp28 <- wp29 <- wp57 <- wp59 <- wp60 <- wp38 <- wp37 <- wp36 <- wp35 <- wp34 <- wp33 <- wp9
--------------------------------------------------------------------------------------
wp6 <- wp35 <- wp34 <- wp33 <- wp9
--------------------------------------------------------------------------------------
 Plan from  region b2 to region a1 : read right to left 
-----------------------------------------------
wp1 <- wp46 <- wp45 <- wp4 <- wp47 <- wp64 <- wp63 <- wp62 <- wp61 <- wp60 <- wp38 <- wp37 <- wp36 <- wp35 <- wp34 <- wp33 <- wp9
--------------------------------------------------------------------------------------
wp2 <- wp55 <- wp56 <- wp68 <- wp67 <- wp66 <- wp65 <- wp64 <- wp63 <- wp62 <- wp61 <- wp60 <- wp38 <- wp37 <- wp36 <- wp35 <- wp34 <- wp33 <- wp9
--------------------------------------------------------------------------------------
 Plan from  region b2 to region a3 : read right to left 
-----------------------------------------------
wp5 <- wp28 <- wp29 <- wp57 <- wp59 <- wp60 <- wp38 <- wp37 <- wp36 <- wp35 <- wp34 <- wp33 <- wp9
--------------------------------------------------------------------------------------
wp6 <- wp35 <- wp34 <- wp33 <- wp9
--------------------------------------------------------------------------------------
 Plan from  region b2 to region a1 : read right to left 
-----------------------------------------------
wp1 <- wp46 <- wp45 <- wp4 <- wp47 <- wp64 <- wp63 <- wp62 <- wp61 <- wp60 <- wp38 <- wp37 <- wp36 <- wp35 <- wp34 <- wp33 <- wp9
--------------------------------------------------------------------------------------
wp2 <- wp55 <- wp56 <- wp68 <- wp67 <- wp66 <- wp65 <- wp64 <- wp63 <- wp62 <- wp61 <- wp60 <- wp38 <- wp37 <- wp36 <- wp35 <- wp34 <- wp33 <- wp9
--------------------------------------------------------------------------------------
 Plan from  region b2 to region l1 : read right to left 
-----------------------------------------------
wp19 <- wp74 <- wp73 <- wp31 <- wp30 <- wp32 <- wp33 <- wp9
--------------------------------------------------------------------------------------
 Plan from  region b2 to region a3 : read right to left 
-----------------------------------------------
wp5 <- wp28 <- wp29 <- wp57 <- wp59 <- wp60 <- wp38 <- wp37 <- wp36 <- wp35 <- wp34 <- wp33 <- wp9
--------------------------------------------------------------------------------------
wp6 <- wp35 <- wp34 <- wp33 <- wp9
--------------------------------------------------------------------------------------
 Plan from  region b2 to region a1 : read right to left 
-----------------------------------------------
wp1 <- wp46 <- wp45 <- wp4 <- wp47 <- wp64 <- wp63 <- wp62 <- wp61 <- wp60 <- wp38 <- wp37 <- wp36 <- wp35 <- wp34 <- wp33 <- wp9
--------------------------------------------------------------------------------------
wp2 <- wp55 <- wp56 <- wp68 <- wp67 <- wp66 <- wp65 <- wp64 <- wp63 <- wp62 <- wp61 <- wp60 <- wp38 <- wp37 <- wp36 <- wp35 <- wp34 <- wp33 <- wp9
--------------------------------------------------------------------------------------
 Plan from  region a3 to region l1 : read right to left 
-----------------------------------------------
wp19 <- wp74 <- wp73 <- wp31 <- wp30 <- wp32 <- wp33 <- wp12 <- wp35 <- wp6
--------------------------------------------------------------------------------------
 Plan from  region a3 to region l1 : read right to left 
-----------------------------------------------
wp19 <- wp74 <- wp73 <- wp31 <- wp30 <- wp32 <- wp33 <- wp12 <- wp35 <- wp6
--------------------------------------------------------------------------------------
 Plan from  region a3 to region b2 : read right to left 
-----------------------------------------------
wp9 <- wp35 <- wp6
--------------------------------------------------------------------------------------
wp10 <- wp43 <- wp45 <- wp4 <- wp47 <- wp64 <- wp63 <- wp62 <- wp61 <- wp60 <- wp38 <- wp37 <- wp36 <- wp35 <- wp6
--------------------------------------------------------------------------------------
 Plan from  region b2 to region l1 : read right to left 
-----------------------------------------------
wp19 <- wp74 <- wp73 <- wp31 <- wp30 <- wp32 <- wp33 <- wp9
--------------------------------------------------------------------------------------
 Plan from  region b2 to region a1 : read right to left 
-----------------------------------------------
wp1 <- wp46 <- wp45 <- wp4 <- wp47 <- wp64 <- wp63 <- wp62 <- wp61 <- wp60 <- wp38 <- wp37 <- wp36 <- wp35 <- wp34 <- wp33 <- wp9
--------------------------------------------------------------------------------------
wp2 <- wp55 <- wp56 <- wp68 <- wp67 <- wp66 <- wp65 <- wp64 <- wp63 <- wp62 <- wp61 <- wp60 <- wp38 <- wp37 <- wp36 <- wp35 <- wp34 <- wp33 <- wp9
--------------------------------------------------------------------------------------
 Plan from  region b2 to region a1 : read right to left 
-----------------------------------------------
wp1 <- wp46 <- wp45 <- wp4 <- wp47 <- wp64 <- wp63 <- wp62 <- wp61 <- wp60 <- wp38 <- wp37 <- wp36 <- wp35 <- wp34 <- wp33 <- wp9
--------------------------------------------------------------------------------------
wp2 <- wp55 <- wp56 <- wp68 <- wp67 <- wp66 <- wp65 <- wp64 <- wp63 <- wp62 <- wp61 <- wp60 <- wp38 <- wp37 <- wp36 <- wp35 <- wp34 <- wp33 <- wp9
--------------------------------------------------------------------------------------
 Plan from  region b2 to region a1 : read right to left 
-----------------------------------------------
wp1 <- wp46 <- wp45 <- wp4 <- wp47 <- wp64 <- wp63 <- wp62 <- wp61 <- wp60 <- wp38 <- wp37 <- wp36 <- wp35 <- wp34 <- wp33 <- wp9
--------------------------------------------------------------------------------------
wp2 <- wp55 <- wp56 <- wp68 <- wp67 <- wp66 <- wp65 <- wp64 <- wp63 <- wp62 <- wp61 <- wp60 <- wp38 <- wp37 <- wp36 <- wp35 <- wp34 <- wp33 <- wp9
--------------------------------------------------------------------------------------
 Plan from  region b2 to region l1 : read right to left 
-----------------------------------------------
wp19 <- wp74 <- wp73 <- wp31 <- wp30 <- wp32 <- wp33 <- wp9
--------------------------------------------------------------------------------------
 Plan from  region b2 to region a1 : read right to left 
-----------------------------------------------
wp1 <- wp46 <- wp45 <- wp4 <- wp47 <- wp64 <- wp63 <- wp62 <- wp61 <- wp60 <- wp38 <- wp37 <- wp36 <- wp35 <- wp34 <- wp33 <- wp9
--------------------------------------------------------------------------------------
wp2 <- wp55 <- wp56 <- wp68 <- wp67 <- wp66 <- wp65 <- wp64 <- wp63 <- wp62 <- wp61 <- wp60 <- wp38 <- wp37 <- wp36 <- wp35 <- wp34 <- wp33 <- wp9
--------------------------------------------------------------------------------------
 Plan from  region a1 to region l1 : read right to left 
-----------------------------------------------
wp19 <- wp76 <- wp78 <- wp80 <- wp20 <- wp49 <- wp48 <- wp50 <- wp51 <- wp53 <- wp2
--------------------------------------------------------------------------------------
 Plan from  region a1 to region l1 : read right to left 
-----------------------------------------------
wp19 <- wp76 <- wp78 <- wp80 <- wp20 <- wp49 <- wp48 <- wp50 <- wp51 <- wp53 <- wp2
--------------------------------------------------------------------------------------
 Plan from  region a1 to region b2 : read right to left 
-----------------------------------------------
wp9 <- wp34 <- wp36 <- wp38 <- wp0 <- wp62 <- wp63 <- wp64 <- wp66 <- wp68 <- wp56 <- wp55 <- wp53 <- wp2
--------------------------------------------------------------------------------------
wp10 <- wp43 <- wp45 <- wp4 <- wp47 <- wp64 <- wp66 <- wp68 <- wp56 <- wp55 <- wp53 <- wp2
--------------------------------------------------------------------------------------
 Plan from  region b2 to region l1 : read right to left 
-----------------------------------------------
wp19 <- wp74 <- wp73 <- wp31 <- wp30 <- wp32 <- wp33 <- wp9
--------------------------------------------------------------------------------------
 Plan from  region b2 to region l1 : read right to left 
-----------------------------------------------
wp19 <- wp74 <- wp73 <- wp31 <- wp30 <- wp32 <- wp33 <- wp9
--------------------------------------------------------------------------------------
