(wp22,wp21)
(wp23,wp21)
(wp23,wp22)
(wp24,wp22)
(wp24,wp23)
(wp25,wp22)
(wp25,wp23)
(wp25,wp24)
(wp26,wp11)
(wp26,wp23)
(wp26,wp24)
(wp26,wp25)
(wp27,wp11)
(wp27,wp23)
(wp27,wp24)
(wp27,wp25)
(wp27,wp26)
(wp28,wp11)
(wp28,wp25)
(wp28,wp26)
(wp28,wp27)
(wp29,wp11)
(wp29,wp26)
(wp29,wp27)
(wp29,wp28)
(wp30,wp27)
(wp30,wp28)
(wp30,wp29)
(wp31,wp28)
(wp31,wp29)
(wp31,wp30)
(wp31,wp5)
(wp22,wp17)
(wp24,wp17)
(wp23,wp17)
(wp32,wp30)
(wp32,wp31)
(wp32,wp5)
(wp33,wp30)
(wp33,wp31)
(wp33,wp32)
(wp33,wp5)
(wp34,wp31)
(wp34,wp32)
(wp34,wp33)
(wp35,wp32)
(wp35,wp33)
(wp35,wp34)
(wp39,wp38)
(wp40,wp15)
(wp40,wp18)
(wp40,wp38)
(wp40,wp39)
(wp41,wp15)
(wp41,wp18)
(wp41,wp39)
(wp41,wp40)
(wp42,wp18)
(wp42,wp40)
(wp42,wp41)
(wp43,wp12)
(wp43,wp40)
(wp43,wp41)
(wp43,wp42)
(wp44,wp12)
(wp44,wp41)
(wp44,wp42)
(wp44,wp43)
(wp44,wp9)
(wp45,wp12)
(wp45,wp42)
(wp45,wp43)
(wp45,wp44)
(wp45,wp9)
(wp46,wp12)
(wp46,wp42)
(wp46,wp43)
(wp46,wp44)
(wp46,wp45)
(wp46,wp9)
(wp47,wp3)
(wp47,wp44)
(wp47,wp45)
(wp47,wp46)
(wp47,wp9)
(wp48,wp44)
(wp48,wp45)
(wp48,wp46)
(wp48,wp47)
(wp48,wp6)
(wp49,wp3)
(wp49,wp47)
(wp49,wp48)
(wp49,wp6)
(wp50,wp3)
(wp50,wp47)
(wp50,wp48)
(wp50,wp49)
(wp50,wp6)
(wp51,wp3)
(wp51,wp48)
(wp51,wp49)
(wp51,wp50)
(wp51,wp6)
(wp52,wp0)
(wp52,wp49)
(wp52,wp50)
(wp52,wp51)
(wp52,wp6)
(wp53,wp0)
(wp53,wp49)
(wp53,wp50)
(wp53,wp51)
(wp53,wp52)
(wp54,wp50)
(wp54,wp51)
(wp54,wp52)
(wp54,wp53)
(wp55,wp16)
(wp56,wp13)
(wp56,wp16)
(wp56,wp55)
(wp57,wp13)
(wp57,wp16)
(wp57,wp55)
(wp57,wp56)
(wp58,wp13)
(wp58,wp16)
(wp58,wp56)
(wp58,wp57)
(wp60,wp10)
(wp60,wp16)
(wp60,wp56)
(wp60,wp57)
(wp60,wp58)
(wp62,wp10)
(wp62,wp58)
(wp62,wp60)
(wp62,wp7)
(wp63,wp10)
(wp63,wp60)
(wp63,wp62)
(wp63,wp7)
(wp65,wp10)
(wp65,wp4)
(wp65,wp62)
(wp65,wp63)
(wp66,wp4)
(wp66,wp62)
(wp66,wp63)
(wp66,wp65)
(wp67,wp1)
(wp67,wp4)
(wp67,wp63)
(wp67,wp65)
(wp67,wp66)
(wp69,wp4)
(wp69,wp66)
(wp69,wp67)
(wp70,wp0)
(wp70,wp67)
(wp70,wp69)
(wp71,wp70)
(wp72,wp14)
(wp73,wp14)
(wp73,wp20)
(wp73,wp72)
(wp74,wp14)
(wp74,wp72)
(wp74,wp73)
(wp75,wp73)
(wp75,wp74)
(wp75,wp8)
(wp76,wp74)
(wp76,wp75)
(wp76,wp8)
(wp77,wp74)
(wp77,wp75)
(wp77,wp76)
(wp77,wp8)
(wp78,wp75)
(wp78,wp76)
(wp78,wp77)
(wp78,wp8)
(wp79,wp75)
(wp79,wp76)
(wp79,wp77)
(wp79,wp78)
(wp79,wp8)
(wp80,wp2)
(wp80,wp76)
(wp80,wp77)
(wp80,wp78)
(wp80,wp79)
(wp81,wp78)
(wp81,wp79)
(wp81,wp80)
(wp82,wp2)
(wp82,wp78)
(wp82,wp79)
(wp82,wp80)
(wp82,wp81)
(wp83,wp2)
(wp83,wp80)
(wp83,wp81)
(wp83,wp82)
(wp84,wp2)
(wp84,wp80)
(wp84,wp81)
(wp84,wp82)
(wp84,wp83)
(wp85,wp83)
(wp85,wp84)
(wp87,wp84)
(wp87,wp85)
(wp89,wp33)
(wp89,wp34)
(wp89,wp35)
(wp91,wp84)
(wp91,wp85)
(wp91,wp87)
(wp92,wp50)
(wp92,wp51)
(wp92,wp52)
(wp92,wp53)
(wp92,wp54)
(wp93,wp0)
(wp93,wp52)
(wp93,wp53)
(wp93,wp54)
(wp94,wp34)
(wp94,wp35)
(wp94,wp89)
(wp94,wp92)
(wp95,wp84)
(wp95,wp87)
(wp95,wp91)
(wp96,wp70)
(wp96,wp71)
(wp96,wp95)
(wp97,wp0)
(wp97,wp69)
(wp97,wp70)
(wp97,wp71)
(wp97,wp96)
(wp98,wp35)
(wp98,wp54)
(wp98,wp89)
(wp98,wp92)
(wp98,wp94)
(wp99,wp71)
(wp99,wp87)
(wp99,wp91)
(wp99,wp95)
(wp99,wp96)
(wp100,wp71)
(wp100,wp91)
(wp100,wp95)
(wp100,wp96)
(wp100,wp99)
(wp101,wp0)
(wp101,wp69)
(wp101,wp70)
(wp101,wp71)
(wp101,wp93)
(wp101,wp96)
(wp101,wp97)
(wp102,wp0)
(wp102,wp51)
(wp102,wp52)
(wp102,wp53)
(wp102,wp54)
(wp102,wp92)
(wp102,wp93)
(wp103,wp100)
(wp103,wp101)
(wp103,wp71)
(wp103,wp95)
(wp103,wp96)
(wp103,wp97)
(wp103,wp99)
(wp104,wp52)
(wp104,wp53)
(wp104,wp54)
(wp104,wp89)
(wp104,wp92)
(wp104,wp94)
(wp104,wp98)
(wp105,wp19)
(wp107,wp105)
(wp107,wp19)
(wp108,wp105)
(wp108,wp107)
(wp108,wp19)
(wp109,wp106)
(wp110,wp21)
(wp110,wp38)
(wp111,wp106)
(wp111,wp109)
(wp111,wp20)
(wp112,wp110)
(wp112,wp38)
(wp113,wp105)
(wp113,wp106)
(wp113,wp19)
(wp113,wp55)
(wp113,wp56)
(wp114,wp106)
(wp114,wp109)
(wp114,wp111)
(wp114,wp20)
(wp114,wp73)
(wp115,wp107)
(wp115,wp108)
(wp115,wp112)
(wp115,wp19)
(wp115,wp38)
(wp115,wp40)
(wp116,wp110)
(wp116,wp112)
(wp116,wp115)
(wp116,wp38)
(wp116,wp39)
(wp117,wp105)
(wp117,wp107)
(wp117,wp108)
(wp117,wp112)
(wp117,wp115)
(wp117,wp116)
(wp117,wp19)
(wp117,wp38)
(wp117,wp39)
(wp118,wp105)
(wp118,wp107)
(wp118,wp108)
(wp118,wp113)
(wp118,wp19)
(wp119,wp105)
(wp119,wp107)
(wp119,wp108)
(wp119,wp113)
(wp119,wp118)
(wp119,wp19)
(wp119,wp55)
