wp0[14.775,0.325,-1.57]
wp1[22.425,-4.975,0]
wp10[17.525,-11.275,3.14]
wp11[2.425,-11.275,0]
wp12[7.525,-11.275,3.14]
wp13[22.425,-17.575,0]
wp14[27.525,-17.575,3.14]
wp15[12.425,-17.575,0]
wp16[17.525,-17.575,3.14]
wp17[2.425,-17.575,0]
wp18[7.525,-17.575,3.14]
wp19[15.675,-22.875,-1.57]
wp2[27.525,-4.975,3.14]
wp20[28.825,-20.975,-1.57]
wp3[12.425,-4.975,0]
wp4[17.525,-4.975,3.14]
wp5[2.425,-4.975,0]
wp6[7.525,-4.975,3.14]
wp7[22.425,-11.275,0]
wp8[27.525,-11.275,3.14]
wp9[12.425,-11.275,0]
wp21[0.625,-20.075,2.63394]
wp22[1.025,-18.725,2.90656]
wp23[0.625,-17.375,-1.47747]
wp24[0.425,-16.175,-2.5143]
wp25[-0.575,-15.275,-1.53345]
wp26[-0.325,-14.025,-0.205125]
wp27[0.775,-13.625,-0.499475]
wp28[0.525,-11.775,-1.12062]
wp29[-0.125,-10.525,-1.15506]
wp30[0.475,-9.325,-1.92468]
wp31[0.375,-8.125,-2.01771]
wp32[-0.675,-7.225,2.57379]
wp33[0.325,-5.975,2.39151]
wp34[-0.475,-4.525,2.13544]
wp35[0.725,-3.075,0.454261]
wp36[-0.525,-1.575,-1.63105]
wp37[0.325,-0.175,0.389924]
wp38[11.275,-19.625,2.76362]
wp39[10.075,-18.725,1.52943]
wp40[10.275,-16.125,0.0653618]
wp41[11.275,-15.125,-0.502438]
wp42[10.325,-14.725,-1.25252]
wp43[11.125,-12.925,-2.25867]
wp44[9.125,-12.625,1.33718]
wp45[8.625,-11.675,2.19849]
wp46[11.525,-9.925,2.48606]
wp47[11.025,-8.525,-2.56422]
wp48[9.175,-6.975,2.1068]
wp49[10.125,-6.075,2.50419]
wp50[11.425,-4.225,-2.70814]
wp51[9.575,-2.325,-0.602951]
wp52[9.125,-0.925,0.279969]
wp53[10.775,0.225,2.52871]
wp54[9.575,2.375,-0.0474695]
wp55[21.325,-19.475,0.907871]
wp56[19.525,-17.825,1.86247]
wp57[21.575,-16.975,2.94912]
wp58[18.525,-15.575,0.959527]
wp59[21.925,-14.025,1.60909]
wp60[19.225,-13.025,-2.13545]
wp61[21.625,-12.575,1.28611]
wp62[19.725,-11.725,2.90326]
wp63[19.325,-9.725,-2.70588]
wp64[18.925,-8.625,-2.68735]
wp65[20.675,-6.875,1.51276]
wp66[18.475,-6.075,-1.17838]
wp67[19.325,-4.175,1.77626]
wp68[20.625,-2.325,-1.32848]
wp69[19.475,-0.925,-2.68684]
wp70[21.375,1.175,-2.90683]
wp71[20.225,2.225,2.54347]
wp72[29.475,-19.825,-1.47848]
wp73[31.075,-18.625,-1.45096]
wp74[32.225,-16.275,-1.2781]
wp75[30.225,-15.525,-2.03361]
wp76[31.225,-14.925,1.312]
wp77[31.525,-13.075,3.12511]
wp78[30.175,-12.025,-0.338819]
wp79[30.875,-10.525,2.66643]
wp80[30.725,-7.975,0.523351]
wp81[31.625,-6.525,2.23378]
wp82[32.525,-5.975,-1.62288]
wp83[32.325,-4.475,0.24061]
wp84[30.075,-3.725,1.34859]
wp85[31.975,-2.175,-0.480996]
wp86[30.175,-0.925,1.34413]
wp87[31.175,1.125,0.63421]
wp88[29.575,1.575,0.159045]
wp89[1.475,-0.125,1.52092]
wp90[-1.125,1.025,-2.58067]
wp91[7.825,1.125,1.12612]
wp92[19.475,0.925,2.86286]
wp93[23.325,0.675,0.0947538]
wp94[4.225,-0.425,3.03151]
wp95[24.425,0.425,0.591139]
wp96[2.825,0.875,3.04456]
wp97[13.175,-0.0249996,2.73732]
wp98[18.725,0.0250004,-2.70727]
wp99[21.825,0.125,2.40476]
wp100[18.175,1.175,-1.12964]
wp101[16.975,-0.175,0.725461]
wp102[28.825,0.0250004,1.64071]
wp103[28.225,0.975,2.75354]
wp104[12.025,0.875,2.81875]
wp105[0.525,-21.625,-2.19821]
wp106[2.425,-22.875,-0.674981]
wp107[4.825,-22.175,0.82652]
wp108[6.225,-22.025,0.230102]
wp109[8.225,-21.425,-0.764626]
wp110[9.025,-22.325,2.84259]
wp111[11.175,-22.625,-0.570218]
wp112[12.725,-22.925,-0.958271]
wp113[14.125,-21.975,-2.02873]
wp114[17.175,-21.725,-0.0488503]
wp115[18.325,-21.875,1.67168]
wp116[21.575,-22.375,1.91426]
wp117[22.875,-22.525,-0.599945]
wp118[25.375,-21.975,-3.10247]
wp119[30.725,-22.575,-1.1321]
