(wp22,wp17)
(wp22,wp21)
(wp23,wp17)
(wp23,wp21)
(wp23,wp22)
(wp24,wp11)
(wp24,wp22)
(wp24,wp23)
(wp25,wp11)
(wp25,wp23)
(wp25,wp24)
(wp26,wp11)
(wp26,wp24)
(wp26,wp25)
(wp27,wp25)
(wp27,wp26)
(wp27,wp5)
(wp28,wp26)
(wp28,wp27)
(wp28,wp5)
(wp29,wp18)
(wp30,wp15)
(wp30,wp18)
(wp30,wp29)
(wp31,wp15)
(wp31,wp18)
(wp31,wp29)
(wp31,wp30)
(wp32,wp12)
(wp32,wp30)
(wp32,wp31)
(wp32,wp9)
(wp33,wp12)
(wp33,wp31)
(wp33,wp32)
(wp33,wp9)
(wp34,wp12)
(wp34,wp32)
(wp34,wp33)
(wp34,wp6)
(wp35,wp3)
(wp35,wp33)
(wp35,wp34)
(wp35,wp6)
(wp36,wp3)
(wp36,wp34)
(wp36,wp35)
(wp36,wp6)
(wp37,wp13)
(wp37,wp16)
(wp38,wp13)
(wp38,wp16)
(wp38,wp37)
(wp39,wp16)
(wp39,wp37)
(wp39,wp38)
(wp40,wp10)
(wp40,wp38)
(wp40,wp39)
(wp40,wp7)
(wp41,wp10)
(wp41,wp39)
(wp41,wp40)
(wp41,wp7)
(wp42,wp1)
(wp42,wp10)
(wp42,wp4)
(wp42,wp40)
(wp42,wp41)
(wp43,wp1)
(wp43,wp4)
(wp43,wp41)
(wp43,wp42)
(wp44,wp1)
(wp44,wp4)
(wp44,wp42)
(wp44,wp43)
(wp45,wp14)
(wp45,wp20)
(wp46,wp14)
(wp46,wp20)
(wp46,wp45)
(wp47,wp14)
(wp47,wp45)
(wp47,wp46)
(wp48,wp46)
(wp48,wp47)
(wp48,wp8)
(wp49,wp47)
(wp49,wp48)
(wp49,wp8)
(wp50,wp2)
(wp50,wp48)
(wp50,wp49)
(wp50,wp8)
(wp51,wp2)
(wp51,wp49)
(wp51,wp50)
(wp52,wp2)
(wp52,wp50)
(wp52,wp51)
(wp53,wp28)
(wp54,wp53)
(wp55,wp54)
(wp56,wp36)
(wp56,wp55)
(wp57,wp0)
(wp57,wp36)
(wp57,wp56)
(wp58,wp0)
(wp58,wp44)
(wp59,wp44)
(wp59,wp58)
(wp60,wp59)
(wp61,wp52)
(wp61,wp60)
(wp62,wp52)
(wp62,wp61)
(wp63,wp21)
(wp63,wp22)
(wp64,wp21)
(wp64,wp63)
(wp65,wp64)
(wp66,wp29)
(wp66,wp65)
(wp67,wp19)
(wp67,wp29)
(wp67,wp66)
(wp68,wp19)
(wp68,wp67)
(wp69,wp19)
(wp69,wp68)
(wp70,wp19)
(wp70,wp37)
(wp70,wp69)
(wp71,wp37)
(wp71,wp70)
(wp72,wp20)
(wp72,wp71)
