 Plan from  region s1 to region l1 : read right to left 
-----------------------------------------------
wp19 <- wp67 <- wp66 <- wp29 <- wp18 <- wp31 <- wp30 <- wp32 <- wp12 <- wp34 <- wp36 <- wp57 <- wp0
--------------------------------------------------------------------------------------
 Plan from  region s1 to region c1 : read right to left 
-----------------------------------------------
wp13 <- wp38 <- wp40 <- wp10 <- wp42 <- wp4 <- wp44 <- wp58 <- wp0
--------------------------------------------------------------------------------------
wp14 <- wp46 <- wp48 <- wp50 <- wp2 <- wp52 <- wp61 <- wp60 <- wp59 <- wp44 <- wp58 <- wp0
--------------------------------------------------------------------------------------
 Plan from  region c1 to region l1 : read right to left 
-----------------------------------------------
wp19 <- wp70 <- wp37 <- wp71 <- wp72 <- wp20 <- wp46 <- wp45 <- wp14
--------------------------------------------------------------------------------------
 Plan from  region c1 to region l1 : read right to left 
-----------------------------------------------
wp19 <- wp70 <- wp37 <- wp71 <- wp72 <- wp20 <- wp46 <- wp45 <- wp14
--------------------------------------------------------------------------------------
 Plan from  region c1 to region b1 : read right to left 
-----------------------------------------------
wp7 <- wp40 <- wp39 <- wp38 <- wp16 <- wp37 <- wp71 <- wp72 <- wp20 <- wp46 <- wp45 <- wp14
--------------------------------------------------------------------------------------
wp8 <- wp48 <- wp47 <- wp46 <- wp45 <- wp14
--------------------------------------------------------------------------------------
 Plan from  region b1 to region l1 : read right to left 
-----------------------------------------------
wp19 <- wp70 <- wp37 <- wp71 <- wp72 <- wp20 <- wp46 <- wp48 <- wp8
--------------------------------------------------------------------------------------
 Plan from  region b1 to region l1 : read right to left 
-----------------------------------------------
wp19 <- wp70 <- wp37 <- wp71 <- wp72 <- wp20 <- wp46 <- wp48 <- wp8
--------------------------------------------------------------------------------------
 Plan from  region b1 to region a1 : read right to left 
-----------------------------------------------
wp1 <- wp44 <- wp59 <- wp60 <- wp61 <- wp52 <- wp51 <- wp50 <- wp49 <- wp48 <- wp8
--------------------------------------------------------------------------------------
wp2 <- wp50 <- wp49 <- wp48 <- wp8
--------------------------------------------------------------------------------------
 Plan from  region a1 to region l1 : read right to left 
-----------------------------------------------
wp19 <- wp70 <- wp37 <- wp71 <- wp72 <- wp20 <- wp46 <- wp48 <- wp50 <- wp2
--------------------------------------------------------------------------------------
 Plan from  region a1 to region l1 : read right to left 
-----------------------------------------------
wp19 <- wp70 <- wp37 <- wp71 <- wp72 <- wp20 <- wp46 <- wp48 <- wp50 <- wp2
--------------------------------------------------------------------------------------
