wp0[14.775,0.325,-1.57]
wp1[22.425,-4.975,0]
wp10[17.525,-11.275,3.14]
wp11[2.425,-11.275,0]
wp12[7.525,-11.275,3.14]
wp13[22.425,-17.575,0]
wp14[27.525,-17.575,3.14]
wp15[12.425,-17.575,0]
wp16[17.525,-17.575,3.14]
wp17[2.425,-17.575,0]
wp18[7.525,-17.575,3.14]
wp19[15.675,-22.875,-1.57]
wp2[27.525,-4.975,3.14]
wp20[28.825,-20.975,-1.57]
wp3[12.425,-4.975,0]
wp4[17.525,-4.975,3.14]
wp5[2.425,-4.975,0]
wp6[7.525,-4.975,3.14]
wp7[22.425,-11.275,0]
wp8[27.525,-11.275,3.14]
wp9[12.425,-11.275,0]
wp21[0.125,-19.975,-1.77876]
wp22[-0.0249998,-17.675,1.90034]
wp23[-0.0749998,-15.375,1.39628]
wp24[-0.0749998,-13.075,-0.80972]
wp25[0.275,-10.725,-2.84144]
wp26[-0.175,-8.425,-1.36532]
wp27[0.125,-6.125,3.03917]
wp28[0.175,-3.825,-1.9112]
wp29[9.575,-18.975,2.3261]
wp30[9.925,-16.675,1.77024]
wp31[9.675,-14.375,-0.707737]
wp32[10.025,-12.075,-0.152601]
wp33[9.875,-9.725,1.30366]
wp34[10.025,-7.425,-1.69592]
wp35[10.025,-5.125,1.36147]
wp36[9.975,-2.825,-2.63282]
wp37[19.325,-18.475,-0.163334]
wp38[19.375,-16.175,-1.02558]
wp39[19.475,-13.875,2.73839]
wp40[19.625,-11.575,2.74515]
wp41[19.575,-9.225,-2.52715]
wp42[19.625,-6.925,-0.249822]
wp43[19.775,-4.625,-0.0787622]
wp44[19.525,-2.325,2.89479]
wp45[29.575,-18.975,-2.70686]
wp46[29.525,-16.675,-1.49876]
wp47[29.325,-14.375,-1.18037]
wp48[29.625,-12.075,-2.38808]
wp49[29.525,-9.725,1.70294]
wp50[29.525,-7.425,-1.17288]
wp51[29.325,-5.125,-0.98837]
wp52[29.775,-2.825,-2.66388]
wp53[-0.175,0.325,-1.15748]
wp54[2.875,0.275,1.78552]
wp55[5.925,0.425,2.21382]
wp56[8.975,0.375,0.427549]
wp57[12.025,0.125,-1.797]
wp58[18.125,0.325,1.40596]
wp59[21.175,0.475,2.07592]
wp60[24.225,0.0250004,2.34944]
wp61[27.275,0.375,-3.04578]
wp62[30.325,0.0750004,0.733949]
wp63[-0.175,-21.875,1.29333]
wp64[2.675,-21.875,1.6059]
wp65[5.525,-21.975,2.35321]
wp66[8.375,-21.775,-1.53983]
wp67[11.225,-22.175,2.81154]
wp68[14.075,-22.075,1.63324]
wp69[16.925,-21.825,-0.983718]
wp70[19.775,-22.225,-1.63196]
wp71[22.625,-22.075,-0.126984]
wp72[25.475,-21.925,1.85571]
